<svg xmlns="http://www.w3.org/2000/svg" width="426.729" height="423.333" viewBox="0 0 426.729 423.333">
  <g id="Group_19985" data-name="Group 19985" transform="translate(-136.5 -3683.355)">
    <path id="Path_23381" data-name="Path 23381" d="M655.143,567.805a1.374,1.374,0,0,1,1.606-1.1,1.02,1.02,0,0,1,1.013,1.037,1.492,1.492,0,0,1-.062.342,130.849,130.849,0,0,0,16.715.306l.077-.105c.036.032.068.067.106.1,28.121-1.307,55.185-11.354,79.841-25.391-.428-.249-.861-.644-1.592-1.168.973-.474,1.428-.752,1.918-.92a1.079,1.079,0,0,1,1.35.615,1,1,0,0,1,.089.459c6.277-3.638,12.4-7.524,18.331-11.589,37.055-25.378,69.918-57.144,97.311-92.737,25.312-32.888,53.963-76.059,43.482-119.818-4.951-20.666-19.092-37.021-34.454-50.929-18.166-16.446-37.406-31.788-56.15-47.564-18-15.147-35.683-30.864-54.819-44.577-17.167-12.3-36.159-23.176-57-27.582-20.738-4.384-41.541-1.368-60.686,7.528-19.6,9.109-36.535,23.263-52.254,37.914-31.306,29.178-62.382,61.1-81.829,99.725a191.762,191.762,0,0,0-7.862,17.8c-14.444,24.714-20.876,54.1-19.191,82.737,2.437,41.417,21.866,80.146,49.3,110.618,28.518,31.675,67.426,57.831,110.242,63.808,1.508.21,3.013.388,4.515.543C655.144,567.838,655.14,567.822,655.143,567.805Z" transform="translate(-354.318 3538.162)" fill="#956cc0"/>
    <g id="Ebene_2" data-name="Ebene 2" transform="translate(236 3811.874)">
      <path id="Path_23394" data-name="Path 23394" d="M169.557,12H32.5A26.386,26.386,0,0,0,6,38.242v79.092a26.386,26.386,0,0,0,26.5,26.242H117.8l35.453,35.489a3.651,3.651,0,0,0,2.595,1.06,3.093,3.093,0,0,0,1.389-.292,3.655,3.655,0,0,0,2.266-3.363V143.576h10.051a26.386,26.386,0,0,0,26.5-26.242V38.242A26.386,26.386,0,0,0,169.557,12Zm19.188,105.334a19.078,19.078,0,0,1-19.188,18.932H155.851a3.656,3.656,0,0,0-3.655,3.655v27.741l-30.3-30.336a3.651,3.651,0,0,0-2.595-1.06H32.5A19.078,19.078,0,0,1,13.31,117.334V38.242A19.078,19.078,0,0,1,32.5,19.31H169.557a19.078,19.078,0,0,1,19.188,18.932Z" transform="translate(0 0)" fill="#fff" stroke="#fff" stroke-width="2"/>
      <path id="Path_23395" data-name="Path 23395" d="M35.956,38.5h0a5.5,5.5,0,1,0,.037,0Z" transform="translate(65.071 70.355)" fill="#fff" stroke="#fff" stroke-width="2"/>
      <path id="Path_23396" data-name="Path 23396" d="M34.655,76.478a3.656,3.656,0,0,0,3.655-3.655V21.655a3.655,3.655,0,1,0-7.31,0V72.823A3.656,3.656,0,0,0,34.655,76.478Z" transform="translate(66.372 15.93)" fill="#fff" stroke="#fff" stroke-width="2"/>
    </g>
  </g>
</svg>
