<svg xmlns="http://www.w3.org/2000/svg" xmlns:xlink="http://www.w3.org/1999/xlink" width="426.729" height="423.332" viewBox="0 0 426.729 423.332">
  <defs>
    <clipPath id="clip-path">
      <rect id="Rectangle_3021" data-name="Rectangle 3021" width="215.703" height="204.003" fill="none" stroke="#fff" stroke-width="8"/>
    </clipPath>
  </defs>
  <g id="Group_20011" data-name="Group 20011" transform="translate(-82 -9487.355)">
    <g id="Group_19996" data-name="Group 19996">
      <path id="Path_23504" data-name="Path 23504" d="M655.143,567.805a1.374,1.374,0,0,1,1.606-1.1,1.02,1.02,0,0,1,1.013,1.037,1.492,1.492,0,0,1-.062.342,130.849,130.849,0,0,0,16.715.306l.077-.105c.036.032.068.067.106.1,28.121-1.307,55.185-11.354,79.841-25.391-.428-.249-.861-.644-1.592-1.168.973-.474,1.428-.752,1.918-.92a1.079,1.079,0,0,1,1.35.615,1,1,0,0,1,.089.459c6.277-3.638,12.4-7.524,18.331-11.589,37.055-25.378,69.918-57.144,97.311-92.737,25.312-32.888,53.963-76.059,43.482-119.818-4.951-20.666-19.092-37.021-34.454-50.929-18.166-16.446-37.406-31.788-56.15-47.564-18-15.147-35.683-30.864-54.819-44.577-17.167-12.3-36.159-23.176-57-27.582-20.738-4.384-41.541-1.368-60.686,7.528-19.6,9.109-36.535,23.263-52.254,37.914-31.306,29.178-62.382,61.1-81.829,99.725a191.762,191.762,0,0,0-7.862,17.8c-14.444,24.714-20.876,54.1-19.191,82.737,2.437,41.417,21.866,80.146,49.3,110.618,28.518,31.675,67.426,57.831,110.242,63.808,1.508.21,3.013.388,4.515.543C655.144,567.838,655.14,567.822,655.143,567.805Z" transform="translate(-408.818 9342.162)" fill="#74b959"/>
      <g id="Group_19941" data-name="Group 19941" transform="translate(170 9597.977)">
        <g id="Group_19940" data-name="Group 19940" transform="translate(0 0)" clip-path="url(#clip-path)">
          <path id="Path_23478" data-name="Path 23478" d="M54.394,158.785C23.407,149.414,1.25,123.173,1.25,81.952c0-44.567,35.953-80.7,80.315-80.7,44.344,0,80.306,36.135,80.306,80.7a107.286,107.286,0,0,1-1.425,17.812" transform="translate(2.615 2.615)" fill="none" stroke="#fff" stroke-miterlimit="10" stroke-width="8"/>
          <path id="Path_23479" data-name="Path 23479" d="M23.038,17.068c2.375-4.8,6.44-8.354,12.621-8.354,5.674,0,11.431,3.772,12.621,8.354" transform="translate(48.193 18.229)" fill="none" stroke="#fff" stroke-linecap="round" stroke-linejoin="round" stroke-width="8"/>
          <path id="Path_23480" data-name="Path 23480" d="M48.285,6.612c-2.375,3.185-6.437,5.544-12.618,5.544-5.683,0-11.443-2.5-12.627-5.544" transform="translate(48.197 13.832)" fill="none" stroke="#fff" stroke-linecap="round" stroke-linejoin="round" stroke-width="8"/>
          <path id="Path_23481" data-name="Path 23481" d="M181.131,37.818a83.226,83.226,0,0,1-166.452-.006" transform="translate(30.707 79.099)" fill="none" stroke="#fff" stroke-miterlimit="10" stroke-width="8"/>
          <path id="Path_23482" data-name="Path 23482" d="M148.381,37.812A63.693,63.693,0,0,1,21,37.818" transform="translate(43.919 79.099)" fill="none" stroke="#fff" stroke-miterlimit="10" stroke-width="8"/>
          <path id="Path_23483" data-name="Path 23483" d="M61.9,37.812a12.109,12.109,0,1,1-24.219.006" transform="translate(78.821 79.099)" fill="none" stroke="#fff" stroke-miterlimit="10" stroke-width="8"/>
          <line id="Line_149" data-name="Line 149" x2="71.114" transform="translate(45.426 116.912)" fill="none" stroke="#fff" stroke-linecap="round" stroke-miterlimit="10" stroke-width="8"/>
          <line id="Line_150" data-name="Line 150" x1="71.095" transform="translate(140.718 116.912)" fill="none" stroke="#fff" stroke-linecap="round" stroke-miterlimit="10" stroke-width="8"/>
          <line id="Line_151" data-name="Line 151" y1="51.06" x2="0.006" transform="translate(128.613 129.369)" fill="none" stroke="#fff" stroke-miterlimit="10" stroke-width="8"/>
          <line id="Line_152" data-name="Line 152" x1="36.407" y2="36.395" transform="translate(85.618 127.377)" fill="none" stroke="#fff" stroke-miterlimit="10" stroke-width="8"/>
          <line id="Line_153" data-name="Line 153" x2="36.252" y2="36.252" transform="translate(135.322 127.486)" fill="none" stroke="#fff" stroke-miterlimit="10" stroke-width="8"/>
          <path id="Path_23484" data-name="Path 23484" d="M18.423,23.826a5.646,5.646,0,1,1-5.646,5.646,5.646,5.646,0,0,1,5.646-5.646" transform="translate(26.728 49.842)" fill="#fff" stroke="#fff" stroke-width="8"/>
          <path id="Path_23485" data-name="Path 23485" d="M18.821,17.188a5.646,5.646,0,1,1-5.646,5.646,5.646,5.646,0,0,1,5.646-5.646" transform="translate(27.561 35.956)" fill="#fff" stroke="#fff" stroke-width="8"/>
          <path id="Path_23486" data-name="Path 23486" d="M12.537,27a5.646,5.646,0,1,1-5.646,5.646A5.648,5.648,0,0,1,12.537,27" transform="translate(14.415 56.479)" fill="#fff" stroke="#fff" stroke-width="8"/>
          <path id="Path_23487" data-name="Path 23487" d="M12.935,20.361a5.646,5.646,0,1,1-5.646,5.646,5.644,5.644,0,0,1,5.646-5.646" transform="translate(15.248 42.593)" fill="#fff" stroke="#fff" stroke-width="8"/>
        </g>
      </g>
    </g>
  </g>
</svg>
