<svg xmlns="http://www.w3.org/2000/svg" width="105.949" height="105.952" viewBox="0 0 105.949 105.952">
  <g id="Grupo_20780" data-name="Grupo 20780" transform="translate(-24.285 -24.27)">
    <path id="Caminho_26527" data-name="Caminho 26527" d="M114.381,40.123a52.5,52.5,0,1,0,0,74.247A52.559,52.559,0,0,0,114.381,40.123ZM41.759,41.757a50.243,50.243,0,0,1,70.409-.556,1.134,1.134,0,0,0-.624.32L99.289,53.776c-.129-.318-.247-.645-.347-.978l-1.7-5.615a10.666,10.666,0,0,0-7.85-7.31l-4.316-.98A10.684,10.684,0,0,0,74.9,42.07l-4.811,5.22a5.928,5.928,0,0,1-6.4,1.536,10.809,10.809,0,0,0-10,1.473l-1.185.869a10.784,10.784,0,0,0-3.583,12.915l.563,1.341a4.646,4.646,0,0,1-1.741,5.642A10.687,10.687,0,0,0,43.3,82.209l.7,3.229a3.124,3.124,0,0,1-.638,2.617,9.938,9.938,0,0,0,1.791,13.94q.2.155.408.3l3.068,2.129-7.575,7.589a50.249,50.249,0,0,1,.706-70.255ZM102.7,60.952l2.637,1.5a7.741,7.741,0,0,1,3.858,5.9l.583,5.506a7.7,7.7,0,0,1-4.611,7.891l-.125.054a8.118,8.118,0,0,0-4.2,10.686q.067.154.14.305l.061.127a7.6,7.6,0,0,1-1.77,8.962l-3.958,3.524a9.339,9.339,0,0,1-12.105.309l-.154-.123a15.727,15.727,0,0,0-18.768-.763l-1.253.849a7.673,7.673,0,0,1-8.624-.045l-2.195-1.523L98.817,57.531A12.892,12.892,0,0,0,102.7,60.952ZM50.3,102.777l-3.4-2.369A7.627,7.627,0,0,1,44.959,89.8q.143-.207.3-.4a5.37,5.37,0,0,0,1-4.432l-.7-3.227a8.426,8.426,0,0,1,3.579-8.8,6.933,6.933,0,0,0,2.48-8.4L51.05,63.2a8.483,8.483,0,0,1,2.819-10.158l1.185-.869a8.551,8.551,0,0,1,7.959-1.123A8.2,8.2,0,0,0,71.8,48.86l4.811-5.22a8.356,8.356,0,0,1,7.97-2.5l4.328.976a8.349,8.349,0,0,1,6.146,5.724l1.7,5.617a13.113,13.113,0,0,0,.817,2.042Zm62.448,9.958a50.253,50.253,0,0,1-70.048.908l7.868-7.868,2.537,1.761a10,10,0,0,0,11.243.061l1.253-.849a13.428,13.428,0,0,1,16.027.651l.154.123a11.647,11.647,0,0,0,15.089-.384l3.956-3.527a9.917,9.917,0,0,0,2.3-11.7l-.061-.127a5.806,5.806,0,0,1,2.679-7.761q.111-.054.224-.1l.125-.054a10,10,0,0,0,5.98-10.256l-.583-5.506a10.056,10.056,0,0,0-5.006-7.657l-2.635-1.507a10.561,10.561,0,0,1-3.388-3.064l12.725-12.725a1.147,1.147,0,0,0,.32-.617A50.245,50.245,0,0,1,112.747,112.735Z" fill="#006853" stroke="#006853" stroke-width="1"/>
    <path id="Caminho_26528" data-name="Caminho 26528" d="M261.57,151.311a1.155,1.155,0,0,0-1.631-.1h0l-2.68,2.385-2.694-2.385a1.155,1.155,0,1,0-1.545,1.718l.013.011,2.483,2.2-2.483,2.2a1.155,1.155,0,0,0,1.519,1.741l.013-.011,2.694-2.385,2.692,2.385a1.155,1.155,0,1,0,1.545-1.718l-.013-.011-2.48-2.2,2.48-2.2a1.15,1.15,0,0,0,.093-1.624Z" transform="translate(-176.143 -97.518)" fill="#006853" stroke="#006853" stroke-width="1"/>
    <path id="Caminho_26529" data-name="Caminho 26529" d="M286.274,333.986a1.155,1.155,0,0,0,1.631.1h0L290.6,331.7l2.694,2.383a1.155,1.155,0,0,0,1.545-1.718l-.013-.011-2.483-2.2,2.48-2.2a1.156,1.156,0,1,0-1.532-1.732l-2.694,2.385-2.692-2.385a1.156,1.156,0,0,0-1.532,1.732l2.48,2.2-2.48,2.2a1.153,1.153,0,0,0-.1,1.627Z" transform="translate(-201.92 -232.823)" fill="#006853" stroke="#006853" stroke-width="1"/>
    <path id="Caminho_26530" data-name="Caminho 26530" d="M338.037,221.959a1.155,1.155,0,0,0,1.631.1h0l2.694-2.385,2.71,2.385a1.155,1.155,0,0,0,1.53-1.732l-2.48-2.2,2.48-2.2a1.155,1.155,0,1,0-1.466-1.786c-.022.018-.043.037-.064.056l-2.694,2.383-2.694-2.383a1.155,1.155,0,0,0-1.545,1.718l.013.011,2.48,2.2-2.48,2.2A1.157,1.157,0,0,0,338.037,221.959Z" transform="translate(-241.943 -146.197)" fill="#006853" stroke="#006853" stroke-width="1"/>
    <path id="Caminho_26531" data-name="Caminho 26531" d="M144.982,251.751a1.153,1.153,0,0,0-1.627-.1l0,0-2.694,2.385-2.694-2.385a1.155,1.155,0,0,0-1.532,1.729l2.483,2.2-2.483,2.2a1.155,1.155,0,1,0,1.519,1.741l.013-.011,2.694-2.385,2.694,2.385a1.155,1.155,0,0,0,1.532-1.729l-2.483-2.2,2.478-2.2a1.153,1.153,0,0,0,.1-1.627Z" transform="translate(-86.004 -175.167)" fill="#006853" stroke="#006853" stroke-width="1"/>
    <path id="Caminho_26532" data-name="Caminho 26532" d="M213.558,227.44a1.734,1.734,0,0,0,0,3.465A1.734,1.734,0,0,0,213.558,227.44Z" transform="translate(-144.638 -156.675)" fill="#006853" stroke="#006853" stroke-width="1"/>
    <path id="Caminho_26533" data-name="Caminho 26533" d="M267.289,292.878a1.735,1.735,0,0,0,0-3.468A1.735,1.735,0,0,0,267.289,292.878Z" transform="translate(-186.173 -204.582)" fill="#006853" stroke="#006853" stroke-width="1"/>
    <path id="Caminho_26534" data-name="Caminho 26534" d="M328,292.878a1.735,1.735,0,0,0,0-3.468A1.735,1.735,0,0,0,328,292.878Z" transform="translate(-233.109 -204.582)" fill="#006853" stroke="#006853" stroke-width="1"/>
    <path id="Caminho_26535" data-name="Caminho 26535" d="M137.095,313.4a1.734,1.734,0,0,0,0,3.465A1.734,1.734,0,0,0,137.095,313.4Z" transform="translate(-85.527 -223.127)" fill="#006853" stroke="#006853" stroke-width="1"/>
    <path id="Caminho_26536" data-name="Caminho 26536" d="M179.969,171.92a1.157,1.157,0,0,0-1.448.756l-.606,1.922a2.14,2.14,0,0,1-1.35,1.384,2.174,2.174,0,0,1-1.977-.277,4.462,4.462,0,0,0-6.057,1.058l-2.435,3.282a1.157,1.157,0,0,0,.241,1.618,1.135,1.135,0,0,0,.681.227,1.157,1.157,0,0,0,.928-.465l2.435-3.282a2.179,2.179,0,0,1,3.007-.47,4.467,4.467,0,0,0,6.724-2.372l.6-1.922a1.153,1.153,0,0,0-.735-1.455Z" transform="translate(-109.066 -113.715)" fill="#006853" stroke="#006853" stroke-width="1"/>
    <path id="Caminho_26537" data-name="Caminho 26537" d="M300.221,223.735a2.086,2.086,0,0,1,.563,2.442l-1.162,2.61a1.155,1.155,0,1,0,2.106.951l0-.011,1.164-2.61a4.434,4.434,0,0,0-1.232-5.188,2.067,2.067,0,0,1-.3-2.875l2.376-3.032a1.155,1.155,0,0,0-1.816-1.425l-2.378,3.03A4.389,4.389,0,0,0,300.221,223.735Z" transform="translate(-211.682 -146.435)" fill="#006853" stroke="#006853" stroke-width="1"/>
    <path id="Caminho_26538" data-name="Caminho 26538" d="M183.021,320.52a1.136,1.136,0,0,0,.365.059,1.155,1.155,0,0,0,1.1-.792c.043-.132.254-.89.5-1.788a1.967,1.967,0,0,1,.994-1.241,2.029,2.029,0,0,1,1.657-.093,4.312,4.312,0,0,0,5.71-3.751l.27-3.726a1.156,1.156,0,0,0-2.306-.168l-.268,3.729a1.981,1.981,0,0,1-.894,1.521,2.02,2.02,0,0,1-1.816.191,4.312,4.312,0,0,0-5.487,2.661q-.047.135-.085.273c-.227.824-.415,1.523-.454,1.668A1.155,1.155,0,0,0,183.021,320.52Z" transform="translate(-121.725 -218.911)" fill="#006853" stroke="#006853" stroke-width="1"/>
    <path id="Caminho_26539" data-name="Caminho 26539" d="M282.525,111a1.735,1.735,0,0,0,0,3.468A1.735,1.735,0,0,0,282.525,111Z" transform="translate(-197.953 -66.661)" fill="#006853" stroke="#006853" stroke-width="1"/>
    <path id="Caminho_26540" data-name="Caminho 26540" d="M174.572,160.438a1.735,1.735,0,0,0,0-3.468A1.735,1.735,0,0,0,174.572,160.438Z" transform="translate(-114.498 -102.198)" fill="#006853" stroke="#006853" stroke-width="1"/>
  </g>
</svg>
